simulation/qsim/BasicTutorial.msim.vcd
$comment
	File created using the following command:
		vcd file BasicTutorial.msim.vcd -direction
$end
$date
	Tue Jun 22 19:17:22 2021
$end
$version
	ModelSim Version 2020.1
$end
$timescale
	1ps
$end

$scope module Adil_BasicSymbol_vlg_vec_tst $end
$var reg 1 ! Adil_IN_A $end
$var reg 1 " Adil_IN_B $end
$var reg 1 # Adil_IN_C $end
$var reg 1 $ Adil_IN_D $end
$var wire 1 % Adil_OUT_Z $end

$scope module i1 $end
$var wire 1 & gnd $end
$var wire 1 ' vcc $end
$var wire 1 ( unknown $end
$var tri1 1 ) devclrn $end
$var tri1 1 * devpor $end
$var tri1 1 + devoe $end
$var wire 1 , ~QUARTUS_CREATED_GND~I_combout $end
$var wire 1 - Adil_IN_C~input_o $end
$var wire 1 . Adil_IN_D~input_o $end
$var wire 1 / Adil_IN_A~input_o $end
$var wire 1 0 Adil_IN_B~input_o $end
$var wire 1 1 Adil_Component|Adil_NOR~combout $end
$upscope $end
$upscope $end
$enddefinitions $end
#0
$dumpvars
0!
0"
0#
0$
0%
0&
1'
x(
1)
1*
1+
0,
0-
0.
0/
00
11
$end
#50000
1$
1.
#100000
1#
0$
1-
0.
#150000
1$
1.
#200000
1"
0#
0$
10
0-
0.
#250000
1$
1.
#300000
1#
0$
1-
0.
#350000
1$
1.
#400000
1!
0"
0#
0$
1/
00
0-
0.
#450000
1$
1.
#500000
1#
0$
1-
0.
#550000
1$
1.
#600000
1"
0#
0$
10
0-
0.
01
1%
#650000
1$
1.
#700000
1#
0$
1-
0.
#750000
1$
1.
11
0%
#800000
0!
0"
0#
0$
0/
00
0-
0.
